Test of envs
…
filtered_data

# A tibble: 385,522 × 32
   SampleID       er1   er2   er3 abundance env1  env2  type  description source
   <chr>        <dbl> <dbl> <dbl> <chr>     <chr> <chr> <chr> <chr>       <lgl> 
 1 SRR1228389…  52260  7886   167 1.76%     anim… gut   AMPL… epilepsy;f… NA    
 2 SRR1213147… 183796  9302   956 1.49%     soil  <NA>  AMPL… raw;soil    NA    
 3 ERR3958716…  29051  2797   169 1.53%     anim… gut   AMPL… associatio… NA    
 4 SRR7217557…   7854  1903   126 0.11%     anim… gut;… WGS   breastfeed… NA    
 5 SRR1098305…  85992 15696   950 0.68%     anim… gut   WGS   feces;gast… NA    
 6 SRR6787943… 145526 21295   378 6.61%     anim… <NA>  AMPL… animal;arc… NA    
 7 ERR543073.…  61410  7707   673 2.10%     soil  <NA>  AMPL… city;soil   NA    
 8 ERR1110499…  64813  3832  1006 2.63%     soil  <NA>  AMPL… alpine;lan… NA    
 9 SRR9617820…  82656   109    23 1.11%     plant <NA>  AMPL… crop;legum… NA    
10 SRR8373568… 167195 16108   653 1.31%     aqua… <NA>  AMPL… orleans;wa… NA    
# ℹ 385,512 more rows
# ℹ 22 more variables: projectID <chr>, inistiution <chr>, geo <chr>,
#   env1_split_1 <chr>, env1_split_2 <chr>, env1_split_3 <chr>,
#   env1_split_4 <chr>, env1_split_5 <chr>, env1_split_6 <chr>,
#   env1_split_7 <chr>, env1_split_8 <chr>, env1_split_9 <chr>,
#   env1_split_10 <lgl>, env1_split_11 <lgl>, env2_split_1 <chr>,
#   env2_split_2 <chr>, env2_split_3 <chr>, env2_split_4 <chr>, …
…
